{
  "name": "Question",
  "fields": [
    {
      "fieldName": "language",
      "fieldType": "Language",
      "fieldValues": "FRENCH,ENGLISH",
      "fieldValidateRules": [
        "required"
      ]
    },
    {
      "fieldName": "name",
      "fieldType": "String",
      "fieldValidateRules": [
        "required"
      ]
    },
    {
      "fieldName": "answersType",
      "fieldType": "AnswersType",
      "fieldValues": "OPEN,ONE,MULTI",
      "fieldValidateRules": [
        "required"
      ]
    }
  ],
  "relationships": [
    {
      "relationshipType": "many-to-many",
      "otherEntityName": "choice",
      "otherEntityRelationshipName": "question",
      "relationshipName": "choice",
      "otherEntityField": "id",
      "ownerSide": true
    },
    {
      "relationshipType": "many-to-many",
      "otherEntityName": "quiz",
      "otherEntityRelationshipName": "question",
      "relationshipName": "quiz",
      "otherEntityField": "id",
      "ownerSide": false
    }
  ],
  "changelogDate": "20210303155106",
  "entityTableName": "question",
  "dto": "no",
  "pagination": "pagination",
  "service": "no",
  "jpaMetamodelFiltering": false,
  "fluentMethods": true,
  "readOnly": false,
  "embedded": false,
  "clientRootFolder": "",
  "applications": "*"
}
